[
  { "class": "BasicEventSelection",
    "configs": {
      "m_name": "basicEventSel",      
      "m_truthLevelOnly": false,
      "m_applyGRLCut": true,
      "m_GRLxml": "xAODAnaHelpers/data18_13TeV.periodAllYear_DetStatus-v102-pro22-04_Unknown_PHYS_StandardGRL_All_Good_25ns_Triggerno17e33prim.xml",
      "m_triggerSelection": "HLT_j420 | HLT_j400 | HLT_j360 | HLT_j260 | HLT_j175 | HLT_j110 | HLT_j85 | HLT_j60 | HLT_j45 | HLT_j35 | HLT_j25 | HLT_j0_perf_L1RD0_FILLED |  HLT_j420_320eta490 | HLT_j400_320eta490 | HLT_j380_320eta490 | HLT_j260_320eta490 | HLT_j200_320eta490 | HLT_j175_320eta490 | HLT_j150_320eta490 | HLT_j110_320eta490 | HLT_j85_320eta490 | HLT_j60_320eta490 | HLT_j55_320eta490 | HLT_j45_320eta490 | HLT_j35_320eta490 | HLT_j25_320eta490 | HLT_j15_320eta490",
      "m_applyTriggerCut": true,
      "m_storeTrigDecisions": true,  
      "m_applyEventCleaningCut": true,
      "m_applyCoreFlagsCut": true,
      "m_doPUreweighting": false,
      "m_applyPrimaryVertexCut": true,
      "m_vertexContainerName": "PrimaryVertices",
      "m_PVNTrack": 2,
      "m_checkDuplicatesData": true,
      "m_derivationName": "JETM9Kernel" 
    }
  },
  
  { "class": "JetCalibrator",
    "configs": {
      "m_name": "EMCalibrator",
      "m_calibConfigData": "JES_data2017_2016_2015_Consolidated_EMTopo_2018_Rel21.config",
      "m_calibSequence": "JetArea_Residual_EtaJES_GSC_Insitu",
      "m_sort": true,
      "m_doCleaning": true,
      "m_jetCleanCutLevel": "LooseBad",
      "m_saveAllCleanDecisions": true,
      "m_jetCleanUgly": false,
      "m_inContainerName": "AntiKt4EMTopoJets",
      "m_outContainerName": "AntiKt4EMTopoJets_Nominal",
      "m_jetAlgo": "AntiKt4EMTopo",
      "m_outputAlgo": "AntiKt4EMTopoJets_Nominal_Algo",
      "m_uncertConfig": "",
      "m_systName": ""
    }
  },

  { "class": "JetSelector",
     "configs": {
      "m_name": "EMSelector",
      "m_inContainerName": "AntiKt4EMTopoJets_Nominal",
      "m_inputAlgo": "AntiKt4EMTopoJets_Nominal_Algo",
      "m_decorateSelectedObjects": true,
      "m_createSelectedContainer": true,
      "m_outContainerName": "AntiKt4EMTopoJets_Signal",
      "m_outputAlgo":  "AntiKt4EMTopoJets_Signal_Algo",
      "m_cleanJets": false,
      "m_pT_min": 30e3,
      "m_useCutFlow": true
    }
  },

  { "class": "TreeAlgo",
     "configs": {
      "m_name": "treeAlgo",
      "m_jetContainerName": "AntiKt4EMTopoJets_Signal HLT_xAOD__JetContainer_a4tcemsubjesISFS",
      "m_jetBranchName": "jet HLTJet",
      "m_jetDetailStr": "kinematic rapidity energyLight layer cleanLight scales|kinematic rapidity",
      "m_trigDetailStr": "passTriggers",
      "m_evtDetailStr": "pileup",
      "m_l1JetContainerName": "LVL1JetRoIs"
    }
  }

]
