0.000432104	0.0864705	1.01406	7.18975	1507.1	
0.0864705	0.0860385	1.09961	7.27492	1507.1	
1.01406	1.09961	1.01363	8.19778	1507.1	
7.18975	7.27492	8.19778	7.18932	1507.1	
1507.1	1507.1	1507.1	1507.1	1507.1	
