0.00779393	0.624747	1.11004	8.28587	546.571	
0.624747	0.61701	1.71537	8.86612	546.571	
1.11004	1.71537	1.10231	9.33998	546.571	
8.28587	8.86612	9.33998	8.2786	546.571	
546.571	546.571	546.571	546.571	546.571	
