0.000449296	0.155502	1.75495	13.0431	2883.78	
0.155502	0.155053	1.90945	13.1969	2883.78	
1.75495	1.90945	1.7545	14.7885	2883.78	
13.0431	13.1969	14.7885	13.0426	2883.78	
2883.78	2883.78	2883.78	2883.78	2883.78	
