0.00070546	0.226953	2.56093	19.0303	4684.05	
0.226953	0.226248	2.78634	19.2549	4684.05	
2.56093	2.78634	2.56022	21.5787	4684.05	
19.0303	19.2549	21.5787	19.0296	4684.05	
4684.05	4684.05	4684.05	4684.05	4684.05	
